e213_tb.vcd
$date
	Sat Apr  6 23:37:37 2024
$end
$version
	Icarus Verilog
$end
$timescale
	1ns
$end
$scope module e213_tb $end
$var wire 1 ! tb_en $end
$var wire 1 " error $end
$var wire 2 # Vx [1:0] $end
$var wire 1 $ Dx $end
$var wire 1 % DX_oe $end
$var reg 20 & D_data [19:0] $end
$var reg 20 ' U_data [19:0] $end
$var reg 1 ( Ux $end
$var reg 1 ) clock $end
$var reg 1 * reset $end
$var integer 32 + fail [31:0] $end
$var integer 32 , vector [31:0] $end
$var integer 32 - vector_bit [31:0] $end
$scope module TB_U1 $end
$var wire 1 ( Ux $end
$var wire 1 ) clock $end
$var wire 1 * reset $end
$var wire 1 ! tb_en $end
$var wire 2 . Vx [1:0] $end
$var reg 4 / encoder_reg [3:0] $end
$upscope $end
$scope module TB_U2 $end
$var wire 2 0 Rx [1:0] $end
$var wire 1 ) clock $end
$var wire 1 * reset $end
$var wire 1 ! tb_en $end
$var wire 1 " error $end
$var wire 4 1 acs7_ppm_out [3:0] $end
$var wire 1 2 acs7_Bx_out $end
$var wire 4 3 acs6_ppm_out [3:0] $end
$var wire 1 4 acs6_Bx_out $end
$var wire 4 5 acs5_ppm_out [3:0] $end
$var wire 1 6 acs5_Bx_out $end
$var wire 4 7 acs4_ppm_out [3:0] $end
$var wire 1 8 acs4_Bx_out $end
$var wire 4 9 acs3_ppm_out [3:0] $end
$var wire 1 : acs3_Bx_out $end
$var wire 4 ; acs2_ppm_out [3:0] $end
$var wire 1 < acs2_Bx_out $end
$var wire 4 = acs1_ppm_out [3:0] $end
$var wire 1 > acs1_Bx_out $end
$var wire 4 ? acs0_ppm_out [3:0] $end
$var wire 1 @ acs0_Bx_out $end
$var wire 2 A HD9 [1:0] $end
$var wire 2 B HD8 [1:0] $end
$var wire 2 C HD7 [1:0] $end
$var wire 2 D HD6 [1:0] $end
$var wire 2 E HD5 [1:0] $end
$var wire 2 F HD4 [1:0] $end
$var wire 2 G HD3 [1:0] $end
$var wire 2 H HD2 [1:0] $end
$var wire 2 I HD16 [1:0] $end
$var wire 2 J HD15 [1:0] $end
$var wire 2 K HD14 [1:0] $end
$var wire 2 L HD13 [1:0] $end
$var wire 2 M HD12 [1:0] $end
$var wire 2 N HD11 [1:0] $end
$var wire 2 O HD10 [1:0] $end
$var wire 2 P HD1 [1:0] $end
$var wire 1 % Dx_oe $end
$var wire 1 $ Dx $end
$var wire 4 Q A7_out [3:0] $end
$var wire 4 R A6_out [3:0] $end
$var wire 4 S A5_out [3:0] $end
$var wire 4 T A4_out [3:0] $end
$var wire 4 U A3_out [3:0] $end
$var wire 4 V A2_out [3:0] $end
$var wire 4 W A1_out [3:0] $end
$var wire 4 X A0_out [3:0] $end
$scope module U1 $end
$var wire 2 Y Rx [1:0] $end
$var reg 2 Z HD1 [1:0] $end
$var reg 2 [ HD10 [1:0] $end
$var reg 2 \ HD11 [1:0] $end
$var reg 2 ] HD12 [1:0] $end
$var reg 2 ^ HD13 [1:0] $end
$var reg 2 _ HD14 [1:0] $end
$var reg 2 ` HD15 [1:0] $end
$var reg 2 a HD16 [1:0] $end
$var reg 2 b HD2 [1:0] $end
$var reg 2 c HD3 [1:0] $end
$var reg 2 d HD4 [1:0] $end
$var reg 2 e HD5 [1:0] $end
$var reg 2 f HD6 [1:0] $end
$var reg 2 g HD7 [1:0] $end
$var reg 2 h HD8 [1:0] $end
$var reg 2 i HD9 [1:0] $end
$upscope $end
$scope module U2 $end
$var wire 2 j HD0_ina [1:0] $end
$var wire 2 k HD0_inb [1:0] $end
$var wire 2 l HD1_ina [1:0] $end
$var wire 2 m HD1_inb [1:0] $end
$var wire 2 n HD2_ina [1:0] $end
$var wire 2 o HD2_inb [1:0] $end
$var wire 2 p HD3_ina [1:0] $end
$var wire 2 q HD3_inb [1:0] $end
$var wire 2 r HD4_ina [1:0] $end
$var wire 2 s HD4_inb [1:0] $end
$var wire 2 t HD5_ina [1:0] $end
$var wire 2 u HD5_inb [1:0] $end
$var wire 2 v HD6_ina [1:0] $end
$var wire 2 w HD6_inb [1:0] $end
$var wire 2 x HD7_ina [1:0] $end
$var wire 2 y HD7_inb [1:0] $end
$var wire 4 z acs7_ppm_out [3:0] $end
$var wire 4 { acs7_ppm_inb [3:0] $end
$var wire 4 | acs7_ppm_ina [3:0] $end
$var wire 1 2 acs7_Bx_out $end
$var wire 4 } acs6_ppm_out [3:0] $end
$var wire 4 ~ acs6_ppm_inb [3:0] $end
$var wire 4 !" acs6_ppm_ina [3:0] $end
$var wire 1 4 acs6_Bx_out $end
$var wire 4 "" acs5_ppm_out [3:0] $end
$var wire 4 #" acs5_ppm_inb [3:0] $end
$var wire 4 $" acs5_ppm_ina [3:0] $end
$var wire 1 6 acs5_Bx_out $end
$var wire 4 %" acs4_ppm_out [3:0] $end
$var wire 4 &" acs4_ppm_inb [3:0] $end
$var wire 4 '" acs4_ppm_ina [3:0] $end
$var wire 1 8 acs4_Bx_out $end
$var wire 4 (" acs3_ppm_out [3:0] $end
$var wire 4 )" acs3_ppm_inb [3:0] $end
$var wire 4 *" acs3_ppm_ina [3:0] $end
$var wire 1 : acs3_Bx_out $end
$var wire 4 +" acs2_ppm_out [3:0] $end
$var wire 4 ," acs2_ppm_inb [3:0] $end
$var wire 4 -" acs2_ppm_ina [3:0] $end
$var wire 1 < acs2_Bx_out $end
$var wire 4 ." acs1_ppm_out [3:0] $end
$var wire 4 /" acs1_ppm_inb [3:0] $end
$var wire 4 0" acs1_ppm_ina [3:0] $end
$var wire 1 > acs1_Bx_out $end
$var wire 4 1" acs0_ppm_out [3:0] $end
$var wire 4 2" acs0_ppm_inb [3:0] $end
$var wire 4 3" acs0_ppm_ina [3:0] $end
$var wire 1 @ acs0_Bx_out $end
$scope module ACS0 $end
$var wire 4 4" HD_ina [3:0] $end
$var wire 4 5" HD_inb [3:0] $end
$var wire 4 6" acs_ppm_inb [3:0] $end
$var wire 4 7" acs_ppm_ina [3:0] $end
$var reg 1 @ acs_Bx_out $end
$var reg 4 8" acs_ppm_out [3:0] $end
$var reg 4 9" suma [3:0] $end
$var reg 4 :" sumb [3:0] $end
$upscope $end
$scope module ACS1 $end
$var wire 4 ;" HD_ina [3:0] $end
$var wire 4 <" HD_inb [3:0] $end
$var wire 4 =" acs_ppm_inb [3:0] $end
$var wire 4 >" acs_ppm_ina [3:0] $end
$var reg 1 > acs_Bx_out $end
$var reg 4 ?" acs_ppm_out [3:0] $end
$var reg 4 @" suma [3:0] $end
$var reg 4 A" sumb [3:0] $end
$upscope $end
$scope module ACS2 $end
$var wire 4 B" HD_ina [3:0] $end
$var wire 4 C" HD_inb [3:0] $end
$var wire 4 D" acs_ppm_inb [3:0] $end
$var wire 4 E" acs_ppm_ina [3:0] $end
$var reg 1 < acs_Bx_out $end
$var reg 4 F" acs_ppm_out [3:0] $end
$var reg 4 G" suma [3:0] $end
$var reg 4 H" sumb [3:0] $end
$upscope $end
$scope module ACS3 $end
$var wire 4 I" HD_ina [3:0] $end
$var wire 4 J" HD_inb [3:0] $end
$var wire 4 K" acs_ppm_inb [3:0] $end
$var wire 4 L" acs_ppm_ina [3:0] $end
$var reg 1 : acs_Bx_out $end
$var reg 4 M" acs_ppm_out [3:0] $end
$var reg 4 N" suma [3:0] $end
$var reg 4 O" sumb [3:0] $end
$upscope $end
$scope module ACS4 $end
$var wire 4 P" HD_ina [3:0] $end
$var wire 4 Q" HD_inb [3:0] $end
$var wire 4 R" acs_ppm_inb [3:0] $end
$var wire 4 S" acs_ppm_ina [3:0] $end
$var reg 1 8 acs_Bx_out $end
$var reg 4 T" acs_ppm_out [3:0] $end
$var reg 4 U" suma [3:0] $end
$var reg 4 V" sumb [3:0] $end
$upscope $end
$scope module ACS5 $end
$var wire 4 W" HD_ina [3:0] $end
$var wire 4 X" HD_inb [3:0] $end
$var wire 4 Y" acs_ppm_inb [3:0] $end
$var wire 4 Z" acs_ppm_ina [3:0] $end
$var reg 1 6 acs_Bx_out $end
$var reg 4 [" acs_ppm_out [3:0] $end
$var reg 4 \" suma [3:0] $end
$var reg 4 ]" sumb [3:0] $end
$upscope $end
$scope module ACS6 $end
$var wire 4 ^" HD_ina [3:0] $end
$var wire 4 _" HD_inb [3:0] $end
$var wire 4 `" acs_ppm_inb [3:0] $end
$var wire 4 a" acs_ppm_ina [3:0] $end
$var reg 1 4 acs_Bx_out $end
$var reg 4 b" acs_ppm_out [3:0] $end
$var reg 4 c" suma [3:0] $end
$var reg 4 d" sumb [3:0] $end
$upscope $end
$scope module ACS7 $end
$var wire 4 e" HD_ina [3:0] $end
$var wire 4 f" HD_inb [3:0] $end
$var wire 4 g" acs_ppm_inb [3:0] $end
$var wire 4 h" acs_ppm_ina [3:0] $end
$var reg 1 2 acs_Bx_out $end
$var reg 4 i" acs_ppm_out [3:0] $end
$var reg 4 j" suma [3:0] $end
$var reg 4 k" sumb [3:0] $end
$upscope $end
$upscope $end
$scope module U3 $end
$var wire 4 l" A0_in [3:0] $end
$var wire 4 m" A0_out [3:0] $end
$var wire 4 n" A1_in [3:0] $end
$var wire 4 o" A1_out [3:0] $end
$var wire 4 p" A2_in [3:0] $end
$var wire 4 q" A2_out [3:0] $end
$var wire 4 r" A3_in [3:0] $end
$var wire 4 s" A3_out [3:0] $end
$var wire 4 t" A4_in [3:0] $end
$var wire 4 u" A4_out [3:0] $end
$var wire 4 v" A5_in [3:0] $end
$var wire 4 w" A5_out [3:0] $end
$var wire 4 x" A6_in [3:0] $end
$var wire 4 y" A6_out [3:0] $end
$var wire 4 z" A7_in [3:0] $end
$var wire 4 {" A7_out [3:0] $end
$var wire 1 % Dx_oe $end
$var wire 1 @ P0_in $end
$var wire 1 > P1_in $end
$var wire 1 < P2_in $end
$var wire 1 : P3_in $end
$var wire 1 8 P4_in $end
$var wire 1 6 P5_in $end
$var wire 1 4 P6_in $end
$var wire 1 2 P7_in $end
$var wire 1 ) clock $end
$var wire 1 * reset $end
$var wire 1 ! tb_en $end
$var wire 3 |" min_state [2:0] $end
$var wire 1 " error $end
$var wire 1 $ Dx $end
$var reg 4 }" A0 [3:0] $end
$var reg 4 ~" A1 [3:0] $end
$var reg 4 !# A2 [3:0] $end
$var reg 4 "# A3 [3:0] $end
$var reg 4 ## A4 [3:0] $end
$var reg 4 $# A5 [3:0] $end
$var reg 4 %# A6 [3:0] $end
$var reg 4 &# A7 [3:0] $end
$var reg 12 '# P0 [11:0] $end
$var reg 12 (# P1 [11:0] $end
$var reg 12 )# P2 [11:0] $end
$var reg 12 *# P3 [11:0] $end
$var reg 12 +# P4 [11:0] $end
$var reg 12 ,# P5 [11:0] $end
$var reg 12 -# P6 [11:0] $end
$var reg 12 .# P7 [11:0] $end
$var reg 9 /# block_count [8:0] $end
$var reg 1 0# oe $end
$var reg 3 1# tb_reg [2:0] $end
$var reg 1 2# te $end
$var reg 4 3# trace_ptr [3:0] $end
$var reg 1 4# we $end
$var reg 4 5# write_ptr [3:0] $end
$scope module SE_1 $end
$var wire 1 ) clock $end
$var wire 1 * reset $end
$var wire 4 6# stage [3:0] $end
$var wire 1 4# we $end
$var wire 3 7# metric [2:0] $end
$var reg 1 " error $end
$upscope $end
$scope module TB_1 $end
$var wire 4 8# in0 [3:0] $end
$var wire 4 9# in1 [3:0] $end
$var wire 4 :# in2 [3:0] $end
$var wire 4 ;# in3 [3:0] $end
$var wire 4 <# in4 [3:0] $end
$var wire 4 =# in5 [3:0] $end
$var wire 4 ># in6 [3:0] $end
$var wire 4 ?# in7 [3:0] $end
$var reg 4 @# min_01 [3:0] $end
$var reg 4 A# min_0123 [3:0] $end
$var reg 4 B# min_23 [3:0] $end
$var reg 4 C# min_45 [3:0] $end
$var reg 4 D# min_4567 [3:0] $end
$var reg 4 E# min_67 [3:0] $end
$var reg 4 F# min_metric [3:0] $end
$var reg 3 G# min_state [2:0] $end
$upscope $end
$upscope $end
$upscope $end
$upscope $end
$enddefinitions $end
$comment Show the parameter values. $end
$dumpall
$end
#0
$dumpvars
bx G#
bx F#
bx E#
bx D#
bx C#
bx B#
bx A#
bx @#
bx ?#
bx >#
bx =#
bx <#
bx ;#
bx :#
bx 9#
bx 8#
bx 7#
bx 6#
bx 5#
x4#
bx 3#
x2#
bx 1#
x0#
bx /#
bx .#
bx -#
bx ,#
bx +#
bx *#
bx )#
bx (#
bx '#
bx &#
bx %#
bx $#
bx ##
bx "#
bx !#
bx ~"
bx }"
bx |"
bx {"
bx z"
bx y"
bx x"
bx w"
bx v"
bx u"
bx t"
bx s"
bx r"
bx q"
bx p"
bx o"
bx n"
bx m"
bx l"
bx k"
bx j"
bx i"
bx h"
bx g"
b0xx f"
b0xx e"
bx d"
bx c"
bx b"
bx a"
bx `"
b0xx _"
b0xx ^"
bx ]"
bx \"
bx ["
bx Z"
bx Y"
b0xx X"
b0xx W"
bx V"
bx U"
bx T"
bx S"
bx R"
b0xx Q"
b0xx P"
bx O"
bx N"
bx M"
bx L"
bx K"
b0xx J"
b0xx I"
bx H"
bx G"
bx F"
bx E"
bx D"
b0xx C"
b0xx B"
bx A"
bx @"
bx ?"
bx >"
bx ="
b0xx <"
b0xx ;"
bx :"
bx 9"
bx 8"
bx 7"
bx 6"
b0xx 5"
b0xx 4"
bx 3"
bx 2"
bx 1"
bx 0"
bx /"
bx ."
bx -"
bx ,"
bx +"
bx *"
bx )"
bx ("
bx '"
bx &"
bx %"
bx $"
bx #"
bx ""
bx !"
bx ~
bx }
bx |
bx {
bx z
bx y
bx x
bx w
bx v
bx u
bx t
bx s
bx r
bx q
bx p
bx o
bx n
bx m
bx l
bx k
bx j
bx i
bx h
bx g
bx f
bx e
bx d
bx c
bx b
bx a
bx `
bx _
bx ^
bx ]
bx \
bx [
bx Z
bx Y
bx X
bx W
bx V
bx U
bx T
bx S
bx R
bx Q
bx P
bx O
bx N
bx M
bx L
bx K
bx J
bx I
bx H
bx G
bx F
bx E
bx D
bx C
bx B
bx A
x@
bx ?
x>
bx =
x<
bx ;
x:
bx 9
x8
bx 7
x6
bx 5
x4
bx 3
x2
bx 1
bx 0
bx /
bx .
bx -
b0 ,
b0 +
1*
0)
0(
b1101100101000110010 '
b0 &
x%
x$
bx #
x"
x!
$end
#50
b10 @"
b0 9"
b1 f"
b1 I
b1 a
b1 y
b1 _"
b1 J
b1 `
b1 w
b10 X"
b10 K
b10 _
b10 u
b0 Q"
b0 L
b0 ^
b0 s
b1 J"
b1 M
b1 ]
b1 q
b1 C"
b1 N
b1 \
b1 o
b0 <"
b0 O
b0 [
b0 m
b10 5"
b10 A
b10 i
b10 k
b1 e"
b1 B
b1 h
b1 x
b1 ^"
b1 C
b1 g
b1 v
b0 W"
b0 D
b0 f
b0 t
b10 P"
b10 E
b10 e
b10 r
b1 I"
b1 F
b1 d
b1 p
b1 B"
b1 G
b1 c
b1 n
b10 ;"
b10 H
b10 b
b10 l
b0 4"
b0 P
b0 Z
b0 j
b0 #
b0 .
b0 0
b0 Y
0@
b0 ?
b0 1"
b0 8"
b0 l"
0>
b10 =
b10 ."
b10 ?"
b10 n"
04
b1111 3
b1111 }
b1111 b"
b1111 x"
02
b1111 1
b1111 z
b1111 i"
b1111 z"
08
b1111 7
b1111 %"
b1111 T"
b1111 t"
06
b1111 5
b1111 ""
b1111 ["
b1111 v"
0<
b1111 ;
b1111 +"
b1111 F"
b1111 p"
0:
b1111 9
b1111 ("
b1111 M"
b1111 r"
b1111 d"
b1111 k"
b1111 V"
b1111 ]"
b1111 H"
b1111 O"
b1111 :"
b1111 A"
b1111 c"
b1111 j"
b1111 U"
b1111 \"
b1111 G"
b1111 N"
b0 |"
b0 7#
b0 G#
b0 F#
b1111 D#
b0 A#
b1111 E#
b1111 C#
b1111 B#
b0 @#
0$
b0 /
0"
b10100 /#
b0 .#
b1111 Q
b1111 {
b1111 ~
b1111 `"
b1111 g"
b1111 {"
b1111 ?#
b1111 &#
b0 -#
b1111 R
b1111 #"
b1111 &"
b1111 R"
b1111 Y"
b1111 y"
b1111 >#
b1111 %#
b0 ,#
b1111 S
b1111 )"
b1111 ,"
b1111 D"
b1111 K"
b1111 w"
b1111 =#
b1111 $#
b0 +#
b1111 T
b1111 /"
b1111 2"
b1111 6"
b1111 ="
b1111 u"
b1111 <#
b1111 ##
b0 *#
b1111 U
b1111 |
b1111 !"
b1111 a"
b1111 h"
b1111 s"
b1111 ;#
b1111 "#
b0 )#
b1111 V
b1111 $"
b1111 '"
b1111 S"
b1111 Z"
b1111 q"
b1111 :#
b1111 !#
b0 (#
b1111 W
b1111 *"
b1111 -"
b1111 E"
b1111 L"
b1111 o"
b1111 9#
b1111 ~"
b0 '#
b0 X
b0 0"
b0 3"
b0 7"
b0 >"
b0 m"
b0 8#
b0 }"
0%
00#
0!
02#
14#
b0 1#
b0 3#
b0 5#
b0 6#
1)
#100
0)
b10011 -
0*
#150
b11 ;
b11 +"
b11 F"
b11 p"
b11 9
b11 ("
b11 M"
b11 r"
b11 G"
b11 N"
b1 5#
b1 6#
b10 W
b10 *"
b10 -"
b10 E"
b10 L"
b10 o"
b10 9#
b10 ~"
1)
#200
0)
1(
b10010 -
#250
b0 =
b0 ."
b0 ?"
b0 n"
b10 ?
b10 1"
b10 8"
b10 l"
b0 @"
b10 9"
b0 X"
b0 K
b0 _
b0 u
b10 Q"
b10 L
b10 ^
b10 s
b10 <"
b10 O
b10 [
b10 m
b0 5"
b0 A
b0 i
b0 k
b10 W"
b10 D
b10 f
b10 t
b0 P"
b0 E
b0 e
b0 r
b0 ;"
b0 H
b0 b
b0 l
b10 4"
b10 P
b10 Z
b10 j
b11 #
b11 .
b11 0
b11 Y
b100 3
b100 }
b100 b"
b100 x"
b100 1
b100 z
b100 i"
b100 z"
b11 7
b11 %"
b11 T"
b11 t"
b101 5
b101 ""
b101 ["
b101 v"
b100 c"
b100 j"
b11 U"
b101 \"
b11 B#
b1000 /
b10 5#
b10 6#
b11 U
b11 |
b11 !"
b11 a"
b11 h"
b11 s"
b11 ;#
b11 "#
b11 V
b11 $"
b11 '"
b11 S"
b11 Z"
b11 q"
b11 :#
b11 !#
1)
#300
0)
b10001 -
#350
12
b11 3
b11 }
b11 b"
b11 x"
b100 7
b100 %"
b100 T"
b100 t"
b101 j"
b11 c"
b100 \"
b100 U"
b0 f"
b0 I
b0 a
b0 y
b10 _"
b10 J
b10 `
b10 w
b1 X"
b1 K
b1 _
b1 u
b1 Q"
b1 L
b1 ^
b1 s
b10 J"
b10 M
b10 ]
b10 q
b0 C"
b0 N
b0 \
b0 o
b1 <"
b1 O
b1 [
b1 m
b1 5"
b1 A
b1 i
b1 k
b10 e"
b10 B
b10 h
b10 x
b0 ^"
b0 C
b0 g
b0 v
b1 W"
b1 D
b1 f
b1 t
b1 P"
b1 E
b1 e
b1 r
b0 I"
b0 F
b0 d
b0 p
b10 B"
b10 G
b10 c
b10 n
b1 ;"
b1 H
b1 b
b1 l
b1 4"
b1 P
b1 Z
b1 j
b10 #
b10 .
b10 0
b10 Y
06
b100 5
b100 ""
b100 ["
b100 v"
b10 ;
b10 +"
b10 F"
b10 p"
b0 9
b0 ("
b0 M"
b0 r"
0@
b11 ?
b11 1"
b11 8"
b11 l"
b11 =
b11 ."
b11 ?"
b11 n"
b110 d"
b100 k"
b101 V"
b101 ]"
b101 H"
b111 O"
b100 :"
b100 A"
b10 G"
b0 N"
b11 9"
b11 @"
b1 |"
b1 7#
b1 G#
b11 D#
b100 E#
b11 C#
b11 5#
b11 6#
b100 Q
b100 {
b100 ~
b100 `"
b100 g"
b100 {"
b100 ?#
b100 &#
b100 R
b100 #"
b100 &"
b100 R"
b100 Y"
b100 y"
b100 >#
b100 %#
b101 S
b101 )"
b101 ,"
b101 D"
b101 K"
b101 w"
b101 =#
b101 $#
b11 T
b11 /"
b11 2"
b11 6"
b11 ="
b11 u"
b11 <#
b11 ##
b0 W
b0 *"
b0 -"
b0 E"
b0 L"
b0 o"
b0 9#
b0 ~"
b10 X
b10 0"
b10 3"
b10 7"
b10 >"
b10 m"
b10 8#
b10 }"
b1100 /
1)
#400
0)
0(
b10000 -
#450
b0 f"
b0 I
b0 a
b0 y
b10 _"
b10 J
b10 `
b10 w
b1 X"
b1 K
b1 _
b1 u
b1 Q"
b1 L
b1 ^
b1 s
b10 J"
b10 M
b10 ]
b10 q
b0 C"
b0 N
b0 \
b0 o
b1 <"
b1 O
b1 [
b1 m
b1 5"
b1 A
b1 i
b1 k
b10 e"
b10 B
b10 h
b10 x
b0 ^"
b0 C
b0 g
b0 v
b1 W"
b1 D
b1 f
b1 t
b1 P"
b1 E
b1 e
b1 r
b0 I"
b0 F
b0 d
b0 p
b10 B"
b10 G
b10 c
b10 n
b1 ;"
b1 H
b1 b
b1 l
b1 4"
b1 P
b1 Z
b1 j
b10 #
b10 .
b10 0
b10 Y
b0 3
b0 }
b0 b"
b0 x"
02
b10 1
b10 z
b10 i"
b10 z"
b11 7
b11 %"
b11 T"
b11 t"
b11 5
b11 ""
b11 ["
b11 v"
1<
b100 ;
b100 +"
b100 F"
b100 p"
b11 9
b11 ("
b11 M"
b11 r"
b100 ?
b100 1"
b100 8"
b100 l"
b100 =
b100 ."
b100 ?"
b100 n"
b100 V"
b100 ]"
b100 H"
b110 O"
b101 :"
b101 A"
b0 c"
b10 j"
b11 U"
b11 \"
b101 G"
b11 N"
b100 9"
b100 @"
b11 |"
b11 7#
b11 G#
b11 E#
b100 C#
b0 B#
b11 @#
b110 /
b1 1#
b100 5#
b100 6#
b11 R
b11 #"
b11 &"
b11 R"
b11 Y"
b11 y"
b11 >#
b11 %#
b100 S
b100 )"
b100 ,"
b100 D"
b100 K"
b100 w"
b100 =#
b100 $#
b100 T
b100 /"
b100 2"
b100 6"
b100 ="
b100 u"
b100 <#
b100 ##
b0 U
b0 |
b0 !"
b0 a"
b0 h"
b0 s"
b0 ;#
b0 "#
b10 V
b10 $"
b10 '"
b10 S"
b10 Z"
b10 q"
b10 :#
b10 !#
b11 W
b11 *"
b11 -"
b11 E"
b11 L"
b11 o"
b11 9#
b11 ~"
b11 X
b11 0"
b11 3"
b11 7"
b11 >"
b11 m"
b11 8#
b11 }"
1)
#500
0)
1(
b1111 -
#550
b11 ?
b11 1"
b11 8"
b11 l"
b11 1
b11 z
b11 i"
b11 z"
14
1:
b0 X"
b0 K
b0 _
b0 u
b10 Q"
b10 L
b10 ^
b10 s
b10 <"
b10 O
b10 [
b10 m
b0 5"
b0 A
b0 i
b0 k
b10 W"
b10 D
b10 f
b10 t
b0 P"
b0 E
b0 e
b0 r
b0 ;"
b0 H
b0 b
b0 l
b10 4"
b10 P
b10 Z
b10 j
b1 f"
b1 I
b1 a
b1 y
b1 _"
b1 J
b1 `
b1 w
b1 J"
b1 M
b1 ]
b1 q
b1 C"
b1 N
b1 \
b1 o
b1 e"
b1 B
b1 h
b1 x
b1 ^"
b1 C
b1 g
b1 v
b1 I"
b1 F
b1 d
b1 p
b1 B"
b1 G
b1 c
b1 n
b11 3
b11 }
b11 b"
b11 x"
12
18
b10 7
b10 %"
b10 T"
b10 t"
16
b0 5
b0 ""
b0 ["
b0 v"
b100 ;
b100 +"
b100 F"
b100 p"
b100 9
b100 ("
b100 M"
b100 r"
1@
0>
b11 #
b11 .
b11 0
b11 Y
b11 d"
b11 k"
b10 V"
b0 ]"
b100 H"
b100 O"
b11 :"
b101 A"
b100 c"
b100 j"
b100 U"
b110 \"
b101 G"
b101 N"
b110 9"
b100 @"
b110 |"
b110 7#
b110 G#
b0 D#
b11 A#
b0 E#
b11 C#
b11 B#
b100 @#
b11 1#
b101 5#
b101 6#
b10000 )#
b10 Q
b10 {
b10 ~
b10 `"
b10 g"
b10 {"
b10 ?#
b10 &#
b0 R
b0 #"
b0 &"
b0 R"
b0 Y"
b0 y"
b0 >#
b0 %#
b11 S
b11 )"
b11 ,"
b11 D"
b11 K"
b11 w"
b11 =#
b11 $#
b11 T
b11 /"
b11 2"
b11 6"
b11 ="
b11 u"
b11 <#
b11 ##
b11 U
b11 |
b11 !"
b11 a"
b11 h"
b11 s"
b11 ;#
b11 "#
b100 V
b100 $"
b100 '"
b100 S"
b100 Z"
b100 q"
b100 :#
b100 !#
b100 W
b100 *"
b100 -"
b100 E"
b100 L"
b100 o"
b100 9#
b100 ~"
b100 X
b100 0"
b100 3"
b100 7"
b100 >"
b100 m"
b100 8#
b100 }"
b1011 /
1)
#600
0)
b1110 -
#650
02
1>
b110 N"
b100 G"
b101 \"
b101 U"
b10 f"
b10 I
b10 a
b10 y
b0 _"
b0 J
b0 `
b0 w
b0 J"
b0 M
b0 ]
b0 q
b10 C"
b10 N
b10 \
b10 o
b0 e"
b0 B
b0 h
b0 x
b10 ^"
b10 C
b10 g
b10 v
b10 I"
b10 F
b10 d
b10 p
b0 B"
b0 G
b0 c
b0 n
b1 X"
b1 K
b1 _
b1 u
b1 Q"
b1 L
b1 ^
b1 s
b1 <"
b1 O
b1 [
b1 m
b1 5"
b1 A
b1 i
b1 k
b1 W"
b1 D
b1 f
b1 t
b1 P"
b1 E
b1 e
b1 r
b1 ;"
b1 H
b1 b
b1 l
b1 4"
b1 P
b1 Z
b1 j
b1 #
b1 .
b1 0
b1 Y
18
b100 7
b100 %"
b100 T"
b100 t"
b100 5
b100 ""
b100 ["
b100 v"
b10 ;
b10 +"
b10 F"
b10 p"
b0 9
b0 ("
b0 M"
b0 r"
b11 3
b11 }
b11 b"
b11 x"
b100 1
b100 z
b100 i"
b100 z"
b11 ?
b11 1"
b11 8"
b11 l"
b11 =
b11 ."
b11 ?"
b11 n"
1$
b11 d"
b101 k"
b100 V"
b100 ]"
b10 H"
b0 O"
b11 :"
b11 A"
b110 c"
b100 j"
b100 9"
b100 @"
b101 |"
b101 7#
b101 G#
b11 E#
b0 C#
b100 B#
b11 @#
b1101 /
b110 1#
b110 5#
b110 6#
b100000 .#
b100000 -#
b100000 ,#
b100000 +#
b100000 *#
b110000 )#
b100000 '#
b11 Q
b11 {
b11 ~
b11 `"
b11 g"
b11 {"
b11 ?#
b11 &#
b11 R
b11 #"
b11 &"
b11 R"
b11 Y"
b11 y"
b11 >#
b11 %#
b0 S
b0 )"
b0 ,"
b0 D"
b0 K"
b0 w"
b0 =#
b0 $#
b10 T
b10 /"
b10 2"
b10 6"
b10 ="
b10 u"
b10 <#
b10 ##
b100 U
b100 |
b100 !"
b100 a"
b100 h"
b100 s"
b100 ;#
b100 "#
b11 X
b11 0"
b11 3"
b11 7"
b11 >"
b11 m"
b11 8#
b11 }"
1)
#700
0)
0(
b1101 -
#750
0:
b1 X"
b1 K
b1 _
b1 u
b1 Q"
b1 L
b1 ^
b1 s
b1 <"
b1 O
b1 [
b1 m
b1 5"
b1 A
b1 i
b1 k
b1 W"
b1 D
b1 f
b1 t
b1 P"
b1 E
b1 e
b1 r
b1 ;"
b1 H
b1 b
b1 l
b1 4"
b1 P
b1 Z
b1 j
b0 f"
b0 I
b0 a
b0 y
b10 _"
b10 J
b10 `
b10 w
b10 J"
b10 M
b10 ]
b10 q
b0 C"
b0 N
b0 \
b0 o
b10 e"
b10 B
b10 h
b10 x
b0 ^"
b0 C
b0 g
b0 v
b0 I"
b0 F
b0 d
b0 p
b10 B"
b10 G
b10 c
b10 n
0@
b100 ?
b100 1"
b100 8"
b100 l"
0>
b100 =
b100 ."
b100 ?"
b100 n"
04
b0 3
b0 }
b0 b"
b0 x"
b10 1
b10 z
b10 i"
b10 z"
08
b11 7
b11 %"
b11 T"
b11 t"
06
b11 5
b11 ""
b11 ["
b11 v"
1<
b100 ;
b100 +"
b100 F"
b100 p"
b11 9
b11 ("
b11 M"
b11 r"
b10 #
b10 .
b10 0
b10 Y
b110 d"
b100 k"
b100 H"
b110 O"
b101 :"
b101 A"
b0 c"
b10 j"
b11 U"
b11 \"
b101 G"
b11 N"
b11 |"
b11 7#
b11 G#
b11 D#
b0 A#
b100 C#
b0 B#
b101 1#
b111 5#
b111 6#
b1100000 -#
b1100000 ,#
b1100000 +#
b1100000 *#
b1110000 )#
b1000000 (#
b1100000 '#
b100 Q
b100 {
b100 ~
b100 `"
b100 g"
b100 {"
b100 ?#
b100 &#
b100 S
b100 )"
b100 ,"
b100 D"
b100 K"
b100 w"
b100 =#
b100 $#
b100 T
b100 /"
b100 2"
b100 6"
b100 ="
b100 u"
b100 <#
b100 ##
b0 U
b0 |
b0 !"
b0 a"
b0 h"
b0 s"
b0 ;#
b0 "#
b10 V
b10 $"
b10 '"
b10 S"
b10 Z"
b10 q"
b10 :#
b10 !#
b11 W
b11 *"
b11 -"
b11 E"
b11 L"
b11 o"
b11 9#
b11 ~"
b110 /
1)
#800
0)
b1100 -
